<svg xmlns="http://www.w3.org/2000/svg" width="10" height="8" viewBox="0 0 10 8">
    <path fill-rule="evenodd" d="M3.066 6.7l6-6.526a.542.542 0 0 1 .757-.04.52.52 0 0 1 .039.742L3.476 7.821a.54.54 0 0 1-.268.159.542.542 0 0 1-.548-.154L.138 5.084a.52.52 0 0 1 .04-.742.542.542 0 0 1 .756.04L3.066 6.7z"/>
</svg>
